Year,Annual
2003,865873242452.359
2004,992226099521.914
2005,1133759985475.67
2006,1278610846644.8
2007,1424065729447.91
2008,1502678437546.86
2009,1337577639751.55
2010,1577040082217.76
2011,1736050505050.51
2012,
1960,41093453544.9096
1961,40767969453.696
1962,41978852041.4426
1963,44657169109.224
1964,48882938810.2204
1965,53909570342.169
1966,60358632035.1532
1967,64768831262.1761
1968,70759031841.7237
1969,77887510241.7083
1970,86303952531.3427
1971,97473757179.6395
1972,111034447924.033
1973,128943105689.431
1974,157503067484.663
1975,170685214313.803
1976,202833671399.594
1977,207779031499.765
1978,214672569474.884
1979,238669113880.826
1980,268893260348.957
1981,300668112436.4
1982,307902245278.431
1983,333808828302.499
1984,347140761331.171
1985,355704137678.506
1986,368867218423.893
1987,421530165912.519
1988,498166896887.95
1989,555513513513.514
1990,582722831676.38
1991,598208082395.042
1992,579531728303.135
1993,563664832183.552
1994,564493995313.415
1995,590517341882.833
1996,613761642830.95
1997,637536472627.474
1998,616766430738.119
1999,661264723699.266
2000,724918860682.782
2001,715423553719.008
2002,734661951188.428
