Year,Annual
2003,4377504477740.73
2004,4819632429992.56
2005,5364250894581.71
2006,6045510758193.57
2007,6903973285857.08
2008,7566754721299.35
2009,8262896155658.9
2010,9122237355847.42
2011,9970605429941.22
1960,
1961,
1962,
1963,
1964,
1965,
1966,
1967,
1968,
1969,
1970,
1971,
1972,
1973,
1974,
1975,
1976,
1977,
1978,
1979,
1980,514118327380.259
1981,540852480404.033
1982,590070056120.8
1983,654387692237.969
1984,753854621458.139
1985,855624995354.987
1986,930919994946.226
1987,1038906714359.99
1988,1156303173082.67
1989,1203711603179.06
1990,1249452644099.86
1991,1364402287357.05
1992,1558147412161.75
1993,1776288049864.4
1994,2008981784396.63
1995,2227960798895.86
1996,2450756878785.45
1997,2678677268512.5
1998,2887614095456.47
1999,3107072766711.16
2000,3368066879114.9
2001,3647616430081.44
2002,3979549525218.85
