Year,Jan,Feb,Mar,Apr,May,Jun,Jul,Aug,Sep,Oct,Nov,Dec,Annual,HALF1,HALF2
1996,,,,,,,,,,,,100.0,,,
1997,100.2,100.5,100.7,100.9,100.9,101.0,101.1,101.3,101.4,101.7,101.7,101.4,101.1,100.7,101.4
1998,101.6,101.7,101.8,102.0,102.2,102.2,102.3,102.4,102.4,102.7,102.8,102.7,102.2,101.9,102.6
1999,102.9,103.0,103.3,104.1,104.1,104.0,104.2,104.5,105.0,105.2,105.3,105.3,104.2,103.6,104.9
2000,105.6,106.2,107.0,107.2,107.2,107.8,107.9,107.8,108.3,108.5,108.7,108.5,107.6,106.8,108.3
2001,109.2,109.6,109.8,110.2,110.7,110.8,110.3,110.2,110.8,110.3,110.2,109.7,110.2,110.1,110.3
2002,109.9,110.1,110.7,111.4,111.2,111.3,111.4,111.5,111.8,112.1,112.2,111.9,111.3,110.8,111.8
2003,112.3,113.1,114.0,113.7,113.4,113.4,113.6,113.9,114.3,114.1,113.9,113.8,113.6,113.3,113.9
2004,114.6,115.2,115.9,116.3,117.0,117.3,117.3,117.3,117.4,118.1,118.2,117.7,116.9,116.1,117.7
2005,117.9,118.5,119.2,120.1,120.0,120.2,120.8,121.3,122.9,123.1,122.0,121.6,120.6,119.3,122.0
2006,122.5,122.7,123.5,124.5,125.0,125.3,125.6,125.7,124.8,124.2,124.1,124.3,124.4,123.9,124.8
2007,124.571,125.243,126.424,127.440,128.347,128.628,128.601,128.216,128.506,128.869,129.848,129.718,127.868,126.776,128.960
2008,130.431,130.728,131.892,132.974,133.997,135.330,136.055,135.315,135.160,133.587,130.857,129.519,132.987,132.559,133.415
2009,130.135,130.855,131.230,131.557,131.876,133.220,132.975,133.069,133.165,133.489,133.663,133.535,132.397,131.479,133.316
2010,133.954,134.028,134.639,134.920,134.909,134.692,134.753,134.908,134.987,135.174,135.289,135.579,134.819,134.524,135.115
2011,136.260,136.960,138.404,139.413,140.062,139.935,140.057,140.440,140.584,140.355,140.225,139.881,139.381,138.506,140.257
2012,140.418,141.040,142.146,142.679,142.391,142.053,141.814,142.470,143.085,142.995,142.332,142.044,142.122,141.788,142.457
