Year,Jan,Feb,Mar,Apr,May,Jun,Jul,Aug,Sep,Oct,Nov,Dec,Annual,HALF1,HALF2
1996,,,,,,,,,,,,100.0,,,
1997,100.0,100.2,100.2,100.3,100.5,100.7,100.6,100.9,101.2,101.3,101.3,101.0,100.7,100.3,101.1
1998,101.2,101.6,101.6,101.9,102.3,102.2,102.2,102.0,102.2,102.4,102.4,102.3,102.0,101.8,102.3
1999,102.6,102.6,103.0,103.7,103.7,103.7,103.9,104.2,105.1,105.0,105.6,105.3,104.0,103.2,104.9
2000,105.6,106.1,106.9,106.9,107.0,108.4,107.7,107.1,108.6,108.8,108.9,108.7,107.6,106.8,108.3
2001,109.6,109.8,109.7,110.4,111.6,111.2,110.0,110.3,111.6,110.0,110.0,109.6,110.3,110.4,110.3
2002,109.5,109.6,110.2,110.7,110.8,111.2,111.3,111.4,111.5,111.9,111.7,111.4,110.9,110.3,111.5
2003,112.0,112.8,113.6,113.2,113.0,113.2,113.1,113.6,113.9,113.6,113.6,113.3,113.2,113.0,113.5
2004,114.1,114.7,115.2,115.6,116.4,116.8,116.3,116.5,116.8,117.4,117.7,117.3,116.2,115.5,117.0
2005,117.3,118.1,118.7,119.6,119.3,119.6,120.2,120.9,123.1,122.6,121.3,120.9,120.1,118.8,121.5
2006,121.6,121.6,122.3,123.3,123.7,124.0,124.1,124.1,123.2,122.6,123.1,123.0,123.1,122.8,123.4
2007,122.861,123.854,125.151,125.724,127.247,127.372,127.111,126.886,127.504,127.349,128.392,128.040,126.458,125.368,127.547
2008,128.753,128.922,130.121,131.484,132.682,134.018,134.595,133.969,133.982,131.946,129.018,128.018,131.459,130.997,131.921
2009,128.636,129.057,129.334,129.604,129.967,131.640,131.366,131.748,131.812,131.724,131.952,131.742,130.715,129.706,131.724
2010,132.417,132.451,133.096,133.510,133.772,133.845,134.130,134.375,134.275,134.074,134.058,134.267,133.689,133.182,134.197
2011,135.061,135.665,136.834,138.005,138.827,139.115,139.222,139.451,139.542,138.573,138.453,138.186,138.078,137.251,138.905
2012,138.903,139.191,140.921,141.308,141.124,140.996,140.874,142.052,142.277,141.651,141.236,140.949,140.957,140.407,141.507
